<?xml version="1.0" encoding="UTF-8" standalone="no"?>
<svg
   xmlns:dc="http://purl.org/dc/elements/1.1/"
   xmlns:cc="http://creativecommons.org/ns#"
   xmlns:rdf="http://www.w3.org/1999/02/22-rdf-syntax-ns#"
   xmlns:svg="http://www.w3.org/2000/svg"
   xmlns="http://www.w3.org/2000/svg"
   xmlns:sodipodi="http://sodipodi.sourceforge.net/DTD/sodipodi-0.dtd"
   xmlns:inkscape="http://www.inkscape.org/namespaces/inkscape"
   id="svg"
   version="1.1"
   width="400"
   height="400"
   viewBox="0, 0, 400,400"
   sodipodi:docname="im00.svg"
   inkscape:version="0.92.3 (2405546, 2018-03-11)">
  <metadata
     id="metadata10">
    <rdf:RDF>
      <cc:Work
         rdf:about="">
        <dc:format>image/svg+xml</dc:format>
        <dc:type
           rdf:resource="http://purl.org/dc/dcmitype/StillImage" />
        <dc:title></dc:title>
      </cc:Work>
    </rdf:RDF>
  </metadata>
  <defs
     id="defs8">
    <clipPath
       clipPathUnits="userSpaceOnUse"
       id="clipPath864">
      <rect
         style="opacity:1;fill:#ffffff;fill-opacity:1;fill-rule:evenodd;stroke:none;stroke-width:136.44094849;stroke-miterlimit:4;stroke-dasharray:none;stroke-opacity:1"
         id="rect866"
         width="291.52542"
         height="244.06779"
         x="74.576271"
         y="84.745766" />
    </clipPath>
  </defs>
  <sodipodi:namedview
     pagecolor="#ffffff"
     bordercolor="#666666"
     borderopacity="1"
     objecttolerance="10"
     gridtolerance="10"
     guidetolerance="10"
     inkscape:pageopacity="0"
     inkscape:pageshadow="2"
     inkscape:window-width="1366"
     inkscape:window-height="704"
     id="namedview6"
     showgrid="false"
     inkscape:zoom="0.834386"
     inkscape:cx="-72.291193"
     inkscape:cy="247.6572"
     inkscape:window-x="0"
     inkscape:window-y="27"
     inkscape:window-maximized="1"
     inkscape:current-layer="svg" />
  <g
     id="g841"
     clip-path="url(#clipPath864)">
    <g
       id="svgg">
      <path
         fill="#fafafa"
         fill-rule="evenodd"
         stroke="none"
         d="M150.645 95.088 C 150.362 95.371,143.948 95.662,141.000 95.525 C 139.024 95.433,135.949 95.533,133.400 95.771 C 132.080 95.895,130.044 95.992,128.876 95.989 C 127.708 95.985,126.538 96.121,126.276 96.291 C 126.014 96.461,124.810 96.615,123.600 96.634 C 122.390 96.653,120.200 96.956,118.733 97.307 C 116.357 97.875,115.793 97.881,113.570 97.362 C 111.736 96.934,110.745 96.888,109.836 97.188 C 109.156 97.413,107.879 97.587,106.999 97.576 C 104.882 97.550,100.199 97.900,98.200 98.234 C 97.320 98.382,95.672 99.115,94.538 99.865 C 91.270 102.024,91.273 102.005,91.253 118.020 C 91.224 140.431,91.243 139.919,90.323 142.956 C 89.607 145.319,89.552 145.987,89.935 147.647 C 90.181 148.711,90.271 149.869,90.137 150.221 C 90.002 150.572,90.128 151.576,90.417 152.452 C 90.870 153.824,90.847 154.415,90.253 156.722 C 89.708 158.837,89.656 159.664,90.005 160.656 C 90.346 161.623,90.304 162.666,89.825 165.195 C 89.424 167.307,89.287 169.428,89.442 171.140 C 89.615 173.063,89.505 174.299,89.047 175.600 C 88.299 177.719,88.230 179.336,88.839 180.474 C 89.173 181.097,89.118 181.867,88.611 183.675 C 88.243 184.985,87.972 187.079,88.007 188.328 C 88.122 192.388,87.988 193.755,87.194 196.605 C 86.565 198.859,86.494 199.707,86.830 200.924 C 87.128 202.003,87.117 203.071,86.794 204.630 C 86.473 206.174,86.448 208.323,86.709 211.910 C 86.913 214.710,87.092 218.080,87.109 219.400 C 87.166 224.102,87.231 225.017,87.602 226.376 C 87.878 227.389,87.800 228.418,87.307 230.271 C 86.734 232.421,86.712 233.001,87.158 234.235 C 87.581 235.404,87.586 236.022,87.183 237.460 C 86.783 238.890,86.786 239.544,87.197 240.790 C 87.478 241.643,87.604 242.742,87.476 243.232 C 87.347 243.723,87.438 244.971,87.677 246.006 C 88.047 247.610,87.985 248.307,87.256 250.706 C 86.785 252.256,86.398 253.856,86.395 254.262 C 86.392 254.668,86.040 256.116,85.612 257.480 C 84.947 259.603,84.856 260.867,84.980 266.280 C 85.060 269.756,84.967 273.451,84.774 274.492 C 84.415 276.430,84.878 280.180,85.686 281.868 C 85.914 282.346,85.980 283.384,85.831 284.175 C 85.605 285.378,85.808 286.066,87.066 288.366 L 88.571 291.118 88.119 294.253 C 87.312 299.860,87.585 300.119,96.672 302.357 C 102.358 303.756,103.108 303.859,104.068 303.363 C 105.004 302.881,105.615 302.920,108.967 303.674 C 112.243 304.412,112.940 304.460,113.784 304.009 C 114.637 303.552,115.383 303.625,119.285 304.545 C 123.169 305.461,123.981 305.542,125.096 305.119 C 126.216 304.694,127.001 304.777,130.863 305.727 C 133.937 306.482,135.463 306.697,135.747 306.413 C 136.478 305.682,138.857 305.975,145.600 307.627 C 151.467 309.065,152.363 309.192,153.672 308.768 C 154.799 308.402,155.575 308.400,156.990 308.756 C 158.395 309.109,159.210 309.109,160.392 308.755 C 161.659 308.375,162.434 308.412,164.586 308.952 C 166.543 309.444,167.430 309.505,168.022 309.188 C 168.461 308.953,169.671 308.778,170.710 308.800 C 174.411 308.877,178.448 308.387,179.519 307.733 C 182.790 305.733,183.779 304.836,185.354 302.439 C 188.047 298.340,189.188 293.952,187.850 292.841 C 187.547 292.590,187.065 291.533,186.779 290.492 C 186.277 288.671,185.574 287.742,181.767 283.864 C 179.586 281.643,177.383 278.112,176.661 275.682 C 176.338 274.593,175.785 273.144,175.432 272.461 C 174.194 270.068,174.159 266.791,175.352 265.032 C 175.929 264.183,176.400 263.172,176.400 262.784 C 176.400 262.397,177.117 261.126,177.994 259.960 C 178.870 258.793,179.635 257.739,179.694 257.616 C 179.752 257.494,180.610 256.769,181.600 256.005 C 182.590 255.241,183.633 254.300,183.918 253.915 C 184.819 252.695,187.903 250.800,188.988 250.800 C 189.562 250.800,190.790 250.398,191.716 249.907 C 192.767 249.350,194.227 248.984,195.600 248.933 C 198.388 248.830,200.869 248.410,201.454 247.942 C 201.703 247.742,202.873 247.606,204.054 247.640 C 205.234 247.673,206.679 247.570,207.265 247.410 C 209.057 246.922,222.235 250.281,223.766 251.616 C 224.445 252.208,225.394 252.815,225.875 252.965 C 226.785 253.249,229.200 255.747,229.200 256.404 C 229.200 256.610,229.719 257.048,230.354 257.376 C 231.712 258.078,233.392 260.776,234.012 263.248 C 235.375 268.688,235.525 269.802,235.181 271.916 C 234.558 275.744,233.860 276.986,229.827 281.448 C 228.742 282.648,227.591 284.028,227.269 284.515 C 226.947 285.002,225.798 286.317,224.716 287.438 C 220.632 291.671,220.698 298.513,224.861 302.353 L 227.000 304.326 234.600 306.167 C 242.604 308.106,243.595 308.245,244.802 307.599 C 245.323 307.320,246.282 307.368,247.947 307.757 C 250.043 308.246,250.450 308.241,251.198 307.716 C 251.864 307.250,252.393 307.202,253.576 307.503 C 254.600 307.763,255.344 307.751,255.849 307.467 C 256.262 307.235,257.860 306.993,259.400 306.930 C 262.048 306.820,263.772 306.690,269.400 306.174 C 270.720 306.053,272.610 305.981,273.600 306.014 C 277.748 306.155,282.572 305.802,284.800 305.195 C 286.532 304.724,287.526 304.653,291.000 304.752 C 291.880 304.777,293.410 304.773,294.400 304.743 C 295.390 304.712,296.830 304.732,297.600 304.787 C 303.255 305.187,305.966 300.861,303.426 295.493 C 302.862 294.299,302.400 293.018,302.400 292.645 C 302.400 292.273,302.048 291.279,301.619 290.436 C 301.028 289.278,300.788 287.785,300.638 284.313 C 300.528 281.788,300.221 279.245,299.955 278.661 C 299.585 277.849,299.581 277.361,299.936 276.581 C 300.635 275.047,300.498 273.411,299.533 271.777 C 298.702 270.368,298.688 270.168,299.187 266.854 C 299.473 264.954,299.697 262.950,299.684 262.400 C 299.622 259.737,298.772 253.297,298.347 252.273 C 297.974 251.373,297.979 250.693,298.367 249.178 C 298.767 247.618,298.764 246.958,298.355 245.826 C 297.942 244.685,297.942 244.037,298.352 242.437 C 298.746 240.899,298.753 240.260,298.384 239.570 C 297.830 238.534,298.028 236.783,299.242 232.000 C 300.009 228.980,300.165 227.142,299.978 223.300 C 299.798 219.571,302.421 212.509,303.908 212.722 C 304.377 212.789,305.175 212.582,305.681 212.261 C 306.989 211.432,313.884 213.071,314.797 214.428 C 315.129 214.921,316.224 216.160,317.230 217.182 C 318.237 218.204,319.401 219.616,319.817 220.320 C 320.233 221.025,320.900 221.705,321.299 221.831 C 321.698 221.958,322.439 222.509,322.946 223.055 C 324.126 224.328,329.556 225.797,331.600 225.397 C 332.370 225.246,333.990 225.073,335.200 225.013 C 336.410 224.953,338.210 224.690,339.200 224.430 C 340.190 224.169,341.566 223.831,342.257 223.678 C 343.181 223.474,344.332 222.446,346.603 219.800 C 351.161 214.490,351.476 214.007,351.975 211.560 C 352.297 209.979,352.780 208.986,353.611 208.189 C 354.302 207.527,354.888 206.468,355.026 205.630 C 355.156 204.843,355.584 203.030,355.977 201.600 C 358.418 192.717,358.578 191.590,357.818 188.586 C 357.430 187.054,357.088 184.810,357.057 183.600 C 357.012 181.857,356.688 180.851,355.500 178.762 C 354.675 177.310,354.000 175.726,354.000 175.242 C 354.000 173.938,352.925 172.094,351.994 171.798 C 351.545 171.656,350.881 171.058,350.516 170.470 C 349.395 168.659,347.886 167.200,347.132 167.200 C 346.398 167.200,344.852 166.005,342.619 163.712 C 341.049 162.099,337.787 161.204,336.169 161.942 C 335.530 162.233,334.382 162.319,333.213 162.164 C 331.983 162.001,331.205 162.069,331.028 162.355 C 330.876 162.600,330.175 162.800,329.469 162.800 C 327.734 162.800,320.353 167.217,317.182 170.152 C 315.350 171.849,314.479 172.389,313.673 172.331 C 313.083 172.289,312.224 172.457,311.765 172.706 C 311.305 172.955,310.561 173.062,310.110 172.945 C 309.659 172.827,309.169 172.926,309.022 173.165 C 308.481 174.039,306.061 173.665,305.363 172.600 C 305.003 172.050,304.487 171.600,304.216 171.600 C 302.461 171.600,301.901 168.779,301.992 160.400 C 302.000 159.630,301.799 158.331,301.544 157.514 C 301.159 156.279,301.205 155.639,301.819 153.714 C 302.335 152.094,302.567 150.080,302.595 147.000 C 302.622 143.859,302.852 141.913,303.398 140.200 C 303.963 138.429,304.144 136.803,304.089 134.000 C 304.037 131.320,304.233 129.434,304.753 127.600 C 305.160 126.170,305.900 123.200,306.398 121.000 C 306.897 118.800,307.641 115.845,308.052 114.433 C 308.464 113.021,308.800 111.519,308.800 111.095 C 308.800 110.671,309.190 109.041,309.666 107.473 C 311.125 102.671,309.711 97.184,306.815 96.404 C 303.918 95.624,301.593 95.468,300.620 95.989 C 300.102 96.266,299.436 96.407,299.139 96.301 C 298.843 96.196,298.115 96.354,297.523 96.653 C 296.654 97.092,296.053 97.106,294.403 96.725 C 292.817 96.359,292.059 96.362,291.013 96.741 C 289.970 97.118,289.245 97.122,287.804 96.759 C 286.387 96.402,285.572 96.402,284.390 96.756 C 283.237 97.101,282.385 97.107,281.080 96.778 C 279.807 96.458,278.877 96.456,277.705 96.772 C 276.325 97.143,275.362 97.036,271.171 96.041 C 267.549 95.181,265.997 94.973,265.270 95.249 C 264.728 95.456,263.545 95.622,262.642 95.620 C 261.739 95.618,259.110 95.694,256.800 95.789 C 254.490 95.884,251.642 95.959,250.471 95.956 C 249.299 95.953,248.093 96.157,247.790 96.408 C 247.487 96.660,246.857 96.745,246.391 96.597 C 245.881 96.435,245.275 96.554,244.871 96.896 C 244.502 97.209,242.693 98.335,240.852 99.399 C 236.343 102.003,235.087 105.108,237.136 108.581 C 237.611 109.387,238.000 110.389,238.000 110.810 C 238.000 111.230,238.810 112.485,239.800 113.600 C 240.790 114.715,241.600 115.810,241.600 116.033 C 241.600 116.257,242.680 117.516,244.000 118.832 C 245.656 120.483,246.400 121.535,246.400 122.225 C 246.400 122.775,246.670 123.872,247.000 124.662 C 247.330 125.451,247.601 126.481,247.601 126.949 C 247.602 127.417,247.931 128.340,248.331 129.000 C 249.509 130.940,249.589 131.931,248.772 134.488 C 248.347 135.817,248.000 137.165,248.000 137.485 C 248.000 137.804,247.392 138.816,246.649 139.733 C 245.906 140.650,245.169 141.819,245.012 142.332 C 244.844 142.879,243.592 143.998,241.979 145.041 C 239.481 146.657,238.330 147.065,234.000 147.869 C 233.230 148.011,231.968 148.525,231.195 149.009 C 229.641 149.984,227.897 150.363,224.000 150.574 C 222.570 150.652,220.370 151.001,219.111 151.350 C 217.852 151.699,216.293 151.879,215.646 151.749 C 215.000 151.620,213.858 151.717,213.107 151.965 C 211.885 152.368,204.458 150.991,199.164 149.380 C 198.814 149.274,197.539 148.221,196.330 147.041 C 195.122 145.862,193.788 144.780,193.367 144.638 C 192.311 144.282,189.289 138.856,188.752 136.350 C 187.788 131.855,189.993 123.218,192.951 119.905 C 199.395 112.685,202.000 109.331,202.000 108.253 C 202.000 107.163,198.965 102.116,197.998 101.599 C 195.572 100.300,180.567 97.120,178.800 97.530 C 177.252 97.889,176.338 97.782,172.282 96.763 C 168.167 95.730,167.364 95.639,166.007 96.045 C 164.692 96.439,163.919 96.378,161.013 95.649 C 158.301 94.969,157.394 94.882,156.723 95.241 C 155.912 95.675,152.943 95.545,151.579 95.016 C 151.238 94.884,150.817 94.916,150.645 95.088 "
         id="path0" />
      <path
         fill="#040404"
         fill-rule="evenodd"
         stroke="none"
         d="M0.000 200.000 L 0.000 400.000 200.000 400.000 L 400.000 400.000 400.000 200.000 L 400.000 0.000 200.000 0.000 L 0.000 0.000 0.000 200.000 M154.036 95.477 C 155.085 95.602,156.237 95.501,156.723 95.241 C 157.394 94.882,158.301 94.969,161.013 95.649 C 163.919 96.378,164.692 96.439,166.007 96.045 C 167.364 95.639,168.167 95.730,172.282 96.763 C 176.338 97.782,177.252 97.889,178.800 97.530 C 180.567 97.120,195.572 100.300,197.998 101.599 C 198.965 102.116,202.000 107.163,202.000 108.253 C 202.000 109.331,199.395 112.685,192.951 119.905 C 189.993 123.218,187.788 131.855,188.752 136.350 C 189.289 138.856,192.311 144.282,193.367 144.638 C 193.788 144.780,195.122 145.862,196.330 147.041 C 197.539 148.221,198.814 149.274,199.164 149.380 C 204.458 150.991,211.885 152.368,213.107 151.965 C 213.858 151.717,215.000 151.620,215.646 151.749 C 216.293 151.879,217.852 151.699,219.111 151.350 C 220.370 151.001,222.570 150.652,224.000 150.574 C 227.897 150.363,229.641 149.984,231.195 149.009 C 231.968 148.525,233.230 148.011,234.000 147.869 C 238.330 147.065,239.481 146.657,241.979 145.041 C 243.592 143.998,244.844 142.879,245.012 142.332 C 245.169 141.819,245.906 140.650,246.649 139.733 C 247.392 138.816,248.000 137.804,248.000 137.485 C 248.000 137.165,248.347 135.817,248.772 134.488 C 249.589 131.931,249.509 130.940,248.331 129.000 C 247.931 128.340,247.602 127.417,247.601 126.949 C 247.601 126.481,247.330 125.451,247.000 124.662 C 246.670 123.872,246.400 122.775,246.400 122.225 C 246.400 121.535,245.656 120.483,244.000 118.832 C 242.680 117.516,241.600 116.257,241.600 116.033 C 241.600 115.810,240.790 114.715,239.800 113.600 C 238.810 112.485,238.000 111.230,238.000 110.810 C 238.000 110.389,237.611 109.387,237.136 108.581 C 235.087 105.108,236.343 102.003,240.852 99.399 C 242.693 98.335,244.502 97.209,244.871 96.896 C 245.275 96.554,245.881 96.435,246.391 96.597 C 246.857 96.745,247.487 96.660,247.790 96.408 C 248.093 96.157,249.299 95.953,250.471 95.956 C 251.642 95.959,254.490 95.884,256.800 95.789 C 259.110 95.694,261.739 95.618,262.642 95.620 C 263.545 95.622,264.728 95.456,265.270 95.249 C 265.997 94.973,267.549 95.181,271.171 96.041 C 275.362 97.036,276.325 97.143,277.705 96.772 C 278.877 96.456,279.807 96.458,281.080 96.778 C 282.385 97.107,283.237 97.101,284.390 96.756 C 285.572 96.402,286.387 96.402,287.804 96.759 C 289.245 97.122,289.970 97.118,291.013 96.741 C 292.059 96.362,292.817 96.359,294.403 96.725 C 296.053 97.106,296.654 97.092,297.523 96.653 C 298.115 96.354,298.843 96.196,299.139 96.301 C 299.436 96.407,300.102 96.266,300.620 95.989 C 301.593 95.468,303.918 95.624,306.815 96.404 C 309.711 97.184,311.125 102.671,309.666 107.473 C 309.190 109.041,308.800 110.671,308.800 111.095 C 308.800 111.519,308.464 113.021,308.052 114.433 C 307.641 115.845,306.897 118.800,306.398 121.000 C 305.900 123.200,305.160 126.170,304.753 127.600 C 304.233 129.434,304.037 131.320,304.089 134.000 C 304.144 136.803,303.963 138.429,303.398 140.200 C 302.852 141.913,302.622 143.859,302.595 147.000 C 302.567 150.080,302.335 152.094,301.819 153.714 C 301.205 155.639,301.159 156.279,301.544 157.514 C 301.799 158.331,302.000 159.630,301.992 160.400 C 301.901 168.779,302.461 171.600,304.216 171.600 C 304.487 171.600,305.003 172.050,305.363 172.600 C 306.061 173.665,308.481 174.039,309.022 173.165 C 309.169 172.926,309.659 172.827,310.110 172.945 C 310.561 173.062,311.305 172.955,311.765 172.706 C 312.224 172.457,313.083 172.289,313.673 172.331 C 314.479 172.389,315.350 171.849,317.182 170.152 C 320.353 167.217,327.734 162.800,329.469 162.800 C 330.175 162.800,330.876 162.600,331.028 162.355 C 331.205 162.069,331.983 162.001,333.213 162.164 C 334.382 162.319,335.530 162.233,336.169 161.942 C 337.787 161.204,341.049 162.099,342.619 163.712 C 344.852 166.005,346.398 167.200,347.132 167.200 C 347.886 167.200,349.395 168.659,350.516 170.470 C 350.881 171.058,351.545 171.656,351.994 171.798 C 352.925 172.094,354.000 173.938,354.000 175.242 C 354.000 175.726,354.675 177.310,355.500 178.762 C 356.688 180.851,357.012 181.857,357.057 183.600 C 357.088 184.810,357.430 187.054,357.818 188.586 C 358.578 191.590,358.418 192.717,355.977 201.600 C 355.584 203.030,355.156 204.843,355.026 205.630 C 354.888 206.468,354.302 207.527,353.611 208.189 C 352.780 208.986,352.297 209.979,351.975 211.560 C 351.476 214.007,351.161 214.490,346.603 219.800 C 344.332 222.446,343.181 223.474,342.257 223.678 C 341.566 223.831,340.190 224.169,339.200 224.430 C 338.210 224.690,336.410 224.953,335.200 225.013 C 333.990 225.073,332.370 225.246,331.600 225.397 C 329.556 225.797,324.126 224.328,322.946 223.055 C 322.439 222.509,321.698 221.958,321.299 221.831 C 320.900 221.705,320.233 221.025,319.817 220.320 C 319.401 219.616,318.237 218.204,317.230 217.182 C 316.224 216.160,315.129 214.921,314.797 214.428 C 313.884 213.071,306.989 211.432,305.681 212.261 C 305.175 212.582,304.377 212.789,303.908 212.722 C 302.421 212.509,299.798 219.571,299.978 223.300 C 300.165 227.142,300.009 228.980,299.242 232.000 C 298.028 236.783,297.830 238.534,298.384 239.570 C 298.753 240.260,298.746 240.899,298.352 242.437 C 297.942 244.037,297.942 244.685,298.355 245.826 C 298.764 246.958,298.767 247.618,298.367 249.178 C 297.979 250.693,297.974 251.373,298.347 252.273 C 298.772 253.297,299.622 259.737,299.684 262.400 C 299.697 262.950,299.473 264.954,299.187 266.854 C 298.688 270.168,298.702 270.368,299.533 271.777 C 300.498 273.411,300.635 275.047,299.936 276.581 C 299.581 277.361,299.585 277.849,299.955 278.661 C 300.221 279.245,300.528 281.788,300.638 284.313 C 300.788 287.785,301.028 289.278,301.619 290.436 C 302.048 291.279,302.400 292.273,302.400 292.645 C 302.400 293.018,302.862 294.299,303.426 295.493 C 305.966 300.861,303.255 305.187,297.600 304.787 C 296.830 304.732,295.390 304.712,294.400 304.743 C 293.410 304.773,291.880 304.777,291.000 304.752 C 287.526 304.653,286.532 304.724,284.800 305.195 C 282.572 305.802,277.748 306.155,273.600 306.014 C 272.610 305.981,270.720 306.053,269.400 306.174 C 263.772 306.690,262.048 306.820,259.400 306.930 C 257.860 306.993,256.262 307.235,255.849 307.467 C 255.344 307.751,254.600 307.763,253.576 307.503 C 252.393 307.202,251.864 307.250,251.198 307.716 C 250.450 308.241,250.043 308.246,247.947 307.757 C 246.282 307.368,245.323 307.320,244.802 307.599 C 243.595 308.245,242.604 308.106,234.600 306.167 L 227.000 304.326 224.861 302.353 C 220.698 298.513,220.632 291.671,224.716 287.438 C 225.798 286.317,226.947 285.002,227.269 284.515 C 227.591 284.028,228.742 282.648,229.827 281.448 C 233.860 276.986,234.558 275.744,235.181 271.916 C 235.525 269.802,235.375 268.688,234.012 263.248 C 233.392 260.776,231.712 258.078,230.354 257.376 C 229.719 257.048,229.200 256.610,229.200 256.404 C 229.200 255.747,226.785 253.249,225.875 252.965 C 225.394 252.815,224.445 252.208,223.766 251.616 C 222.235 250.281,209.057 246.922,207.265 247.410 C 206.679 247.570,205.234 247.673,204.054 247.640 C 202.873 247.606,201.703 247.742,201.454 247.942 C 200.869 248.410,198.388 248.830,195.600 248.933 C 194.227 248.984,192.767 249.350,191.716 249.907 C 190.790 250.398,189.562 250.800,188.988 250.800 C 187.903 250.800,184.819 252.695,183.918 253.915 C 183.633 254.300,182.590 255.241,181.600 256.005 C 180.610 256.769,179.752 257.494,179.694 257.616 C 179.635 257.739,178.870 258.793,177.994 259.960 C 177.117 261.126,176.400 262.397,176.400 262.784 C 176.400 263.172,175.929 264.183,175.352 265.032 C 174.159 266.791,174.194 270.068,175.432 272.461 C 175.785 273.144,176.338 274.593,176.661 275.682 C 177.383 278.112,179.586 281.643,181.767 283.864 C 185.574 287.742,186.277 288.671,186.779 290.492 C 187.065 291.533,187.547 292.590,187.850 292.841 C 189.188 293.952,188.047 298.340,185.354 302.439 C 183.779 304.836,182.790 305.733,179.519 307.733 C 178.448 308.387,174.411 308.877,170.710 308.800 C 169.671 308.778,168.461 308.953,168.022 309.188 C 167.430 309.505,166.543 309.444,164.586 308.952 C 162.434 308.412,161.659 308.375,160.392 308.755 C 159.210 309.109,158.395 309.109,156.990 308.756 C 155.575 308.400,154.799 308.402,153.672 308.768 C 152.363 309.192,151.467 309.065,145.600 307.627 C 138.857 305.975,136.478 305.682,135.747 306.413 C 135.463 306.697,133.937 306.482,130.863 305.727 C 127.001 304.777,126.216 304.694,125.096 305.119 C 123.981 305.542,123.169 305.461,119.285 304.545 C 115.383 303.625,114.637 303.552,113.784 304.009 C 112.940 304.460,112.243 304.412,108.967 303.674 C 105.615 302.920,105.004 302.881,104.068 303.363 C 103.108 303.859,102.358 303.756,96.672 302.357 C 87.585 300.119,87.312 299.860,88.119 294.253 L 88.571 291.118 87.066 288.366 C 85.808 286.066,85.605 285.378,85.831 284.175 C 85.980 283.384,85.914 282.346,85.686 281.868 C 84.878 280.180,84.415 276.430,84.774 274.492 C 84.967 273.451,85.060 269.756,84.980 266.280 C 84.856 260.867,84.947 259.603,85.612 257.480 C 86.040 256.116,86.392 254.668,86.395 254.262 C 86.398 253.856,86.785 252.256,87.256 250.706 C 87.985 248.307,88.047 247.610,87.677 246.006 C 87.438 244.971,87.347 243.723,87.476 243.232 C 87.604 242.742,87.478 241.643,87.197 240.790 C 86.786 239.544,86.783 238.890,87.183 237.460 C 87.586 236.022,87.581 235.404,87.158 234.235 C 86.712 233.001,86.734 232.421,87.307 230.271 C 87.800 228.418,87.878 227.389,87.602 226.376 C 87.231 225.017,87.166 224.102,87.109 219.400 C 87.092 218.080,86.913 214.710,86.709 211.910 C 86.448 208.323,86.473 206.174,86.794 204.630 C 87.117 203.071,87.128 202.003,86.830 200.924 C 86.494 199.707,86.565 198.859,87.194 196.605 C 87.988 193.755,88.122 192.388,88.007 188.328 C 87.972 187.079,88.243 184.985,88.611 183.675 C 89.118 181.867,89.173 181.097,88.839 180.474 C 88.230 179.336,88.299 177.719,89.047 175.600 C 89.505 174.299,89.615 173.063,89.442 171.140 C 89.287 169.428,89.424 167.307,89.825 165.195 C 90.304 162.666,90.346 161.623,90.005 160.656 C 89.656 159.664,89.708 158.837,90.253 156.722 C 90.847 154.415,90.870 153.824,90.417 152.452 C 90.128 151.576,90.002 150.572,90.137 150.221 C 90.271 149.869,90.181 148.711,89.935 147.647 C 89.552 145.987,89.607 145.319,90.323 142.956 C 91.243 139.919,91.224 140.431,91.253 118.020 C 91.273 102.005,91.270 102.024,94.538 99.865 C 95.672 99.115,97.320 98.382,98.200 98.234 C 100.199 97.900,104.882 97.550,106.999 97.576 C 107.879 97.587,109.156 97.413,109.836 97.188 C 110.745 96.888,111.736 96.934,113.570 97.362 C 115.793 97.881,116.357 97.875,118.733 97.307 C 120.200 96.956,122.390 96.653,123.600 96.634 C 124.810 96.615,126.014 96.461,126.276 96.291 C 126.538 96.121,127.708 95.985,128.876 95.989 C 130.044 95.992,132.080 95.895,133.400 95.771 C 135.949 95.533,139.024 95.433,141.000 95.525 C 143.948 95.662,150.362 95.371,150.645 95.088 C 150.817 94.916,151.238 94.884,151.579 95.016 C 151.921 95.148,153.026 95.356,154.036 95.477 "
         id="path1" />
    </g>
  </g>
</svg>
