<?xml version="1.0" encoding="UTF-8" standalone="no"?>
<svg
   xmlns:dc="http://purl.org/dc/elements/1.1/"
   xmlns:cc="http://creativecommons.org/ns#"
   xmlns:rdf="http://www.w3.org/1999/02/22-rdf-syntax-ns#"
   xmlns:svg="http://www.w3.org/2000/svg"
   xmlns="http://www.w3.org/2000/svg"
   xmlns:sodipodi="http://sodipodi.sourceforge.net/DTD/sodipodi-0.dtd"
   xmlns:inkscape="http://www.inkscape.org/namespaces/inkscape"
   id="svg"
   version="1.1"
   width="400"
   height="400"
   viewBox="0, 0, 400,400"
   sodipodi:docname="im4.svg"
   inkscape:version="0.92.3 (2405546, 2018-03-11)">
  <metadata
     id="metadata1289">
    <rdf:RDF>
      <cc:Work
         rdf:about="">
        <dc:format>image/svg+xml</dc:format>
        <dc:type
           rdf:resource="http://purl.org/dc/dcmitype/StillImage" />
      </cc:Work>
    </rdf:RDF>
  </metadata>
  <defs
     id="defs1287">
    <clipPath
       clipPathUnits="userSpaceOnUse"
       id="clipPath1298">
      <rect
         style="opacity:1;fill:#ffffff;fill-opacity:1;fill-rule:evenodd;stroke:none;stroke-width:136.44094849;stroke-miterlimit:4;stroke-dasharray:none;stroke-opacity:1"
         id="rect1300"
         width="258.91473"
         height="235.65892"
         x="72.868217"
         y="81.395348" />
    </clipPath>
  </defs>
  <sodipodi:namedview
     pagecolor="#ffffff"
     bordercolor="#666666"
     borderopacity="1"
     objecttolerance="10"
     gridtolerance="10"
     guidetolerance="10"
     inkscape:pageopacity="0"
     inkscape:pageshadow="2"
     inkscape:window-width="1366"
     inkscape:window-height="704"
     id="namedview1285"
     showgrid="false"
     inkscape:zoom="1.8243355"
     inkscape:cx="150.99346"
     inkscape:cy="200"
     inkscape:window-x="0"
     inkscape:window-y="27"
     inkscape:window-maximized="1"
     inkscape:current-layer="svg" />
  <g
     id="g1294"
     clip-path="url(#clipPath1298)">
    <g
       id="svgg">
      <path
         fill-rule="evenodd"
         fill="#fcfcfc"
         stroke="none"
         d="M304.000 88.800 C 303.668 89.420,303.162 89.600,301.755 89.600 C 299.197 89.600,297.600 91.183,297.600 93.720 C 297.600 95.110,297.402 95.645,296.700 96.151 L 295.800 96.800 296.700 97.449 C 297.402 97.955,297.600 98.490,297.600 99.880 C 297.600 102.401,299.199 104.000,301.720 104.000 C 303.110 104.000,303.645 104.198,304.151 104.900 L 304.800 105.800 305.449 104.900 C 305.955 104.198,306.490 104.000,307.880 104.000 C 310.401 104.000,312.000 102.401,312.000 99.880 C 312.000 98.490,312.198 97.955,312.900 97.449 L 313.800 96.800 312.900 96.151 C 312.198 95.645,312.000 95.110,312.000 93.720 C 312.000 91.183,310.403 89.600,307.845 89.600 C 306.438 89.600,305.932 89.420,305.600 88.800 C 305.365 88.360,305.005 88.000,304.800 88.000 C 304.595 88.000,304.235 88.360,304.000 88.800 M94.400 92.000 C 94.068 92.620,93.562 92.800,92.155 92.800 C 89.597 92.800,88.000 94.383,88.000 96.920 C 88.000 98.310,87.802 98.845,87.100 99.351 L 86.200 100.000 87.100 100.649 C 87.802 101.155,88.000 101.690,88.000 103.080 C 88.000 105.601,89.599 107.200,92.120 107.200 C 93.510 107.200,94.045 107.398,94.551 108.100 L 95.200 109.000 95.849 108.100 C 96.355 107.398,96.890 107.200,98.280 107.200 C 100.801 107.200,102.400 105.601,102.400 103.080 C 102.400 101.690,102.598 101.155,103.300 100.649 L 104.200 100.000 103.300 99.351 C 102.598 98.845,102.400 98.310,102.400 96.920 C 102.400 94.383,100.803 92.800,98.245 92.800 C 96.838 92.800,96.332 92.620,96.000 92.000 C 95.765 91.560,95.405 91.200,95.200 91.200 C 94.995 91.200,94.635 91.560,94.400 92.000 M86.400 288.800 C 86.068 289.420,85.562 289.600,84.155 289.600 C 81.597 289.600,80.000 291.183,80.000 293.720 C 80.000 295.110,79.802 295.645,79.100 296.151 L 78.200 296.800 79.100 297.449 C 79.802 297.955,80.000 298.490,80.000 299.880 C 80.000 302.401,81.599 304.000,84.120 304.000 C 85.510 304.000,86.045 304.198,86.551 304.900 L 87.200 305.800 87.849 304.900 C 88.355 304.198,88.890 304.000,90.280 304.000 C 92.801 304.000,94.400 302.401,94.400 299.880 C 94.400 298.490,94.598 297.955,95.300 297.449 L 96.200 296.800 95.300 296.151 C 94.598 295.645,94.400 295.110,94.400 293.720 C 94.400 291.183,92.803 289.600,90.245 289.600 C 88.838 289.600,88.332 289.420,88.000 288.800 C 87.765 288.360,87.405 288.000,87.200 288.000 C 86.995 288.000,86.635 288.360,86.400 288.800 M302.400 290.400 C 302.068 291.020,301.562 291.200,300.155 291.200 C 297.597 291.200,296.000 292.783,296.000 295.320 C 296.000 296.710,295.802 297.245,295.100 297.751 L 294.200 298.400 295.100 299.049 C 295.802 299.555,296.000 300.090,296.000 301.480 C 296.000 302.916,296.227 303.488,297.169 304.431 C 298.112 305.373,298.684 305.600,300.120 305.600 C 301.510 305.600,302.045 305.798,302.551 306.500 L 303.200 307.400 303.849 306.500 C 304.355 305.798,304.890 305.600,306.280 305.600 C 308.801 305.600,310.400 304.001,310.400 301.480 C 310.400 300.090,310.598 299.555,311.300 299.049 L 312.200 298.400 311.300 297.751 C 310.598 297.245,310.400 296.710,310.400 295.320 C 310.400 292.783,308.803 291.200,306.245 291.200 C 304.838 291.200,304.332 291.020,304.000 290.400 C 303.765 289.960,303.405 289.600,303.200 289.600 C 302.995 289.600,302.635 289.960,302.400 290.400 "
         id="path0" />
      <path
         fill-rule="evenodd"
         fill="#040404"
         stroke="none"
         d="M0.000 200.000 L 0.000 400.000 200.000 400.000 L 400.000 400.000 400.000 200.000 L 400.000 0.000 200.000 0.000 L 0.000 0.000 0.000 200.000 M305.600 88.800 C 305.932 89.420,306.438 89.600,307.845 89.600 C 310.403 89.600,312.000 91.183,312.000 93.720 C 312.000 95.110,312.198 95.645,312.900 96.151 L 313.800 96.800 312.900 97.449 C 312.198 97.955,312.000 98.490,312.000 99.880 C 312.000 102.401,310.401 104.000,307.880 104.000 C 306.490 104.000,305.955 104.198,305.449 104.900 L 304.800 105.800 304.151 104.900 C 303.645 104.198,303.110 104.000,301.720 104.000 C 299.199 104.000,297.600 102.401,297.600 99.880 C 297.600 98.490,297.402 97.955,296.700 97.449 L 295.800 96.800 296.700 96.151 C 297.402 95.645,297.600 95.110,297.600 93.720 C 297.600 91.183,299.197 89.600,301.755 89.600 C 303.162 89.600,303.668 89.420,304.000 88.800 C 304.235 88.360,304.595 88.000,304.800 88.000 C 305.005 88.000,305.365 88.360,305.600 88.800 M96.000 92.000 C 96.332 92.620,96.838 92.800,98.245 92.800 C 100.803 92.800,102.400 94.383,102.400 96.920 C 102.400 98.310,102.598 98.845,103.300 99.351 L 104.200 100.000 103.300 100.649 C 102.598 101.155,102.400 101.690,102.400 103.080 C 102.400 105.601,100.801 107.200,98.280 107.200 C 96.890 107.200,96.355 107.398,95.849 108.100 L 95.200 109.000 94.551 108.100 C 94.045 107.398,93.510 107.200,92.120 107.200 C 89.599 107.200,88.000 105.601,88.000 103.080 C 88.000 101.690,87.802 101.155,87.100 100.649 L 86.200 100.000 87.100 99.351 C 87.802 98.845,88.000 98.310,88.000 96.920 C 88.000 94.383,89.597 92.800,92.155 92.800 C 93.562 92.800,94.068 92.620,94.400 92.000 C 94.635 91.560,94.995 91.200,95.200 91.200 C 95.405 91.200,95.765 91.560,96.000 92.000 M88.000 288.800 C 88.332 289.420,88.838 289.600,90.245 289.600 C 92.803 289.600,94.400 291.183,94.400 293.720 C 94.400 295.110,94.598 295.645,95.300 296.151 L 96.200 296.800 95.300 297.449 C 94.598 297.955,94.400 298.490,94.400 299.880 C 94.400 302.401,92.801 304.000,90.280 304.000 C 88.890 304.000,88.355 304.198,87.849 304.900 L 87.200 305.800 86.551 304.900 C 86.045 304.198,85.510 304.000,84.120 304.000 C 81.599 304.000,80.000 302.401,80.000 299.880 C 80.000 298.490,79.802 297.955,79.100 297.449 L 78.200 296.800 79.100 296.151 C 79.802 295.645,80.000 295.110,80.000 293.720 C 80.000 291.183,81.597 289.600,84.155 289.600 C 85.562 289.600,86.068 289.420,86.400 288.800 C 86.635 288.360,86.995 288.000,87.200 288.000 C 87.405 288.000,87.765 288.360,88.000 288.800 M304.000 290.400 C 304.332 291.020,304.838 291.200,306.245 291.200 C 308.803 291.200,310.400 292.783,310.400 295.320 C 310.400 296.710,310.598 297.245,311.300 297.751 L 312.200 298.400 311.300 299.049 C 310.598 299.555,310.400 300.090,310.400 301.480 C 310.400 304.001,308.801 305.600,306.280 305.600 C 304.890 305.600,304.355 305.798,303.849 306.500 L 303.200 307.400 302.551 306.500 C 302.045 305.798,301.510 305.600,300.120 305.600 C 298.684 305.600,298.112 305.373,297.169 304.431 C 296.227 303.488,296.000 302.916,296.000 301.480 C 296.000 300.090,295.802 299.555,295.100 299.049 L 294.200 298.400 295.100 297.751 C 295.802 297.245,296.000 296.710,296.000 295.320 C 296.000 292.783,297.597 291.200,300.155 291.200 C 301.562 291.200,302.068 291.020,302.400 290.400 C 302.635 289.960,302.995 289.600,303.200 289.600 C 303.405 289.600,303.765 289.960,304.000 290.400 "
         id="path1" />
    </g>
  </g>
</svg>
