<?xml version="1.0" encoding="UTF-8" standalone="no"?>
<svg
   xmlns:dc="http://purl.org/dc/elements/1.1/"
   xmlns:cc="http://creativecommons.org/ns#"
   xmlns:rdf="http://www.w3.org/1999/02/22-rdf-syntax-ns#"
   xmlns:svg="http://www.w3.org/2000/svg"
   xmlns="http://www.w3.org/2000/svg"
   xmlns:sodipodi="http://sodipodi.sourceforge.net/DTD/sodipodi-0.dtd"
   xmlns:inkscape="http://www.inkscape.org/namespaces/inkscape"
   version="1.0"
   width="600px"
   height="300px"
   viewBox="0 0 6000 3000"
   preserveAspectRatio="xMidYMid meet"
   id="svg89"
   sodipodi:docname="WITS-logo-full-MONO-600x300_white.svg"
   inkscape:version="0.92.3 (2405546, 2018-03-11)">
  <metadata
     id="metadata95">
    <rdf:RDF>
      <cc:Work
         rdf:about="">
        <dc:format>image/svg+xml</dc:format>
        <dc:type
           rdf:resource="http://purl.org/dc/dcmitype/StillImage" />
        <dc:title></dc:title>
      </cc:Work>
    </rdf:RDF>
  </metadata>
  <defs
     id="defs93" />
  <sodipodi:namedview
     pagecolor="#ffffff"
     bordercolor="#666666"
     borderopacity="1"
     objecttolerance="10"
     gridtolerance="10"
     guidetolerance="10"
     inkscape:pageopacity="0"
     inkscape:pageshadow="2"
     inkscape:window-width="1366"
     inkscape:window-height="704"
     id="namedview91"
     showgrid="false"
     inkscape:zoom="0.55833333"
     inkscape:cx="298.20896"
     inkscape:cy="150"
     inkscape:window-x="0"
     inkscape:window-y="27"
     inkscape:window-maximized="1"
     inkscape:current-layer="svg89" />
  <g
     id="layer101"
     fill="#000000"
     stroke="none"
     style="stroke:none;stroke-opacity:1;fill:#ffffff;fill-opacity:1">
    <path
       d="M1078 2507 c34 -36 42 -80 42 -224 0 -125 -1 -133 -22 -147 -21 -15 -20 -16 36 -16 57 0 58 1 43 18 -14 15 -17 42 -17 161 0 154 -8 184 -54 215 -37 24 -53 20 -28 -7z"
       id="path2"
       style="stroke:none;stroke-opacity:1;fill:#ffffff;fill-opacity:1" />
    <path
       d="M1330 2422 c-76 -38 -105 -150 -61 -232 52 -98 215 -105 278 -11 30 44 32 130 4 181 -37 69 -146 100 -221 62z m141 -22 c69 -37 67 -195 -3 -244 -35 -25 -104 -21 -133 8 -62 62 -47 192 27 233 28 15 83 17 109 3z"
       id="path4"
       style="stroke:none;stroke-opacity:1;fill:#ffffff;fill-opacity:1" />
    <path
       d="M2482 2320 l-112 -120 0 95 c0 82 3 98 20 115 l20 20 -52 0 c-41 -1 -49 -3 -35 -11 15 -9 17 -28 17 -159 0 -84 4 -150 9 -150 5 0 21 14 36 32 15 18 65 73 111 122 l84 90 0 -105 c0 -100 -1 -107 -22 -117 -20 -9 -15 -11 31 -11 52 -1 53 0 38 17 -14 15 -17 42 -17 160 0 78 -4 142 -8 142 -5 0 -59 -54 -120 -120z"
       id="path6"
       style="stroke:none;stroke-opacity:1;fill:#ffffff;fill-opacity:1" />
    <path
       d="M2871 2320 l-111 -120 0 100 c0 91 2 100 22 114 22 15 20 16 -30 16 -49 0 -52 -1 -38 -16 13 -13 16 -42 16 -160 0 -79 3 -144 8 -144 4 0 57 54 117 121 l110 120 3 -98 c3 -90 1 -99 -19 -115 -21 -18 -20 -18 31 -18 51 0 52 1 37 18 -14 15 -17 42 -17 160 0 78 -4 142 -9 142 -5 0 -59 -54 -120 -120z"
       id="path8"
       style="stroke:none;stroke-opacity:1;fill:#ffffff;fill-opacity:1" />
    <path
       d="M3165 2431 c-43 -4 -63 -9 -52 -13 15 -7 17 -23 17 -142 0 -118 -2 -135 -17 -142 -12 -6 11 -10 67 -14 47 -3 88 -4 91 -3 9 3 -2 63 -12 63 -5 0 -9 -6 -9 -14 0 -16 -53 -31 -70 -21 -5 3 -10 29 -10 57 l0 51 50 -5 c53 -5 59 1 41 46 -7 18 -8 18 -14 3 -4 -12 -18 -17 -42 -17 -35 0 -35 0 -35 46 0 25 5 54 10 65 15 27 64 25 85 -3 16 -23 16 -23 13 12 -3 40 -4 40 -113 31z"
       id="path10"
       style="stroke:none;stroke-opacity:1;fill:#ffffff;fill-opacity:1" />
    <path
       d="M3363 2433 c-15 -6 -18 -83 -3 -83 6 0 10 8 10 18 0 27 20 42 57 42 26 0 36 -6 45 -25 13 -29 -4 -61 -53 -97 -80 -59 -77 -158 6 -174 57 -10 85 1 85 36 0 34 -15 40 -23 10 -6 -23 -55 -28 -75 -8 -22 22 -13 46 31 85 63 55 81 86 73 128 -9 46 -47 75 -100 74 -22 0 -47 -3 -53 -6z"
       id="path12"
       style="stroke:none;stroke-opacity:1;fill:#ffffff;fill-opacity:1" />
    <path
       d="M3635 2431 c-34 -4 -44 -8 -32 -13 15 -7 17 -23 17 -141 0 -129 -1 -134 -22 -145 -19 -9 -9 -11 52 -11 91 -1 120 14 120 63 0 18 -6 41 -14 51 -12 16 -10 21 15 43 33 27 40 82 14 119 -13 19 -78 47 -95 41 -3 0 -27 -4 -55 -7z m107 -38 c10 -9 18 -27 18 -40 0 -30 -51 -83 -79 -83 -19 0 -21 6 -21 54 0 30 3 61 6 70 8 21 52 20 76 -1z m-24 -155 c29 -29 1 -98 -40 -98 -15 0 -18 8 -18 55 0 51 2 55 23 55 13 0 28 -5 35 -12z"
       id="path14"
       style="stroke:none;stroke-opacity:1;fill:#ffffff;fill-opacity:1" />
    <path
       d="M3934 2421 c-42 -26 -54 -66 -54 -181 0 -91 -1 -98 -22 -108 -19 -9 -14 -11 37 -11 46 -1 56 2 47 11 -8 8 -12 49 -12 119 0 92 3 110 21 133 16 20 29 26 59 26 30 0 43 -6 59 -26 18 -23 21 -41 21 -135 0 -92 -3 -109 -17 -118 -14 -8 -5 -10 37 -10 42 0 51 2 38 10 -15 8 -18 25 -18 110 0 116 -14 160 -59 183 -41 21 -99 20 -137 -3z"
       id="path16"
       style="stroke:none;stroke-opacity:1;fill:#ffffff;fill-opacity:1" />
    <path
       d="M4600 2418 c-65 -34 -85 -67 -85 -143 0 -69 15 -99 69 -139 23 -18 41 -21 117 -20 49 1 91 3 93 5 2 2 1 21 -2 41 l-4 38 -28 -30 c-23 -25 -36 -30 -75 -30 -85 0 -125 39 -125 121 0 88 52 143 135 144 l50 0 3 -53 c3 -47 1 -54 -17 -59 -40 -10 -21 -23 34 -23 53 0 72 11 40 24 -11 4 -15 21 -15 66 0 56 -2 61 -26 70 -44 17 -117 12 -164 -12z"
       id="path18"
       style="stroke:none;stroke-opacity:1;fill:#ffffff;fill-opacity:1" />
    <path
       d="M1654 2414 c13 -12 16 -40 16 -139 0 -117 -1 -125 -22 -139 -21 -15 -20 -16 36 -16 57 0 58 1 43 18 -11 12 -17 36 -17 65 l0 47 85 0 85 0 0 -53 c0 -46 -3 -56 -22 -65 -20 -9 -14 -11 36 -11 57 -1 58 0 43 17 -14 15 -17 41 -17 135 0 104 2 119 20 137 l20 20 -56 0 c-50 0 -54 -1 -40 -16 11 -11 16 -35 16 -80 l0 -64 -85 0 -85 0 0 63 c0 65 5 80 30 90 8 3 -11 6 -43 6 -53 1 -57 0 -43 -15z"
       id="path20"
       style="stroke:none;stroke-opacity:1;fill:#ffffff;fill-opacity:1" />
    <path
       d="M1997 2418 c16 -8 33 -42 64 -127 62 -171 68 -186 78 -175 5 5 32 68 60 139 57 145 58 147 86 163 17 10 12 11 -33 12 -29 0 -51 -4 -48 -8 3 -5 -3 -31 -13 -58 -19 -48 -20 -49 -62 -49 -43 0 -43 0 -58 48 -13 42 -13 50 0 58 9 6 -4 9 -41 8 -46 0 -51 -2 -33 -11z m157 -150 c-4 -13 -11 -34 -16 -48 -10 -24 -10 -24 -18 -5 -4 11 -10 32 -14 48 -6 25 -4 27 24 27 28 0 31 -3 24 -22z"
       id="path22"
       style="stroke:none;stroke-opacity:1;fill:#ffffff;fill-opacity:1" />
    <path
       d="M4230 2420 c12 -7 15 -35 15 -140 0 -119 -2 -133 -19 -146 -18 -13 -11 -14 61 -14 66 0 85 4 107 21 33 26 36 84 5 123 l-21 26 44 55 c23 29 59 61 78 69 l35 15 -52 0 -53 1 -51 -65 c-66 -85 -89 -87 -89 -10 0 48 3 57 23 65 17 7 8 9 -38 9 -41 1 -55 -2 -45 -9z m134 -162 c9 -12 16 -33 16 -46 0 -28 -42 -72 -70 -72 -18 0 -20 6 -20 70 l0 70 29 0 c20 0 35 -8 45 -22z"
       id="path24"
       style="stroke:none;stroke-opacity:1;fill:#ffffff;fill-opacity:1" />
    <path
       d="M5482 2099 c-62 -8 -104 -33 -100 -58 2 -12 -14 -33 -46 -59 -92 -77 -202 -227 -191 -263 5 -14 -1 -26 -19 -40 -20 -16 -26 -29 -25 -57 0 -33 1 -35 11 -15 14 29 38 38 38 14 0 -26 10 -51 21 -51 5 0 9 9 9 19 0 11 18 33 39 50 l39 31 -29 -74 c-43 -112 -62 -240 -56 -371 9 -161 6 -155 88 -155 39 0 69 -4 69 -10 0 -5 24 -10 54 -10 61 0 61 0 71 -83 4 -32 11 -57 16 -57 5 0 9 8 9 18 1 16 1 16 11 0 11 -20 89 -26 89 -7 0 8 4 8 14 0 12 -10 15 -4 21 31 15 104 11 98 71 98 30 0 54 5 54 10 0 6 30 10 70 10 67 0 70 1 77 28 5 15 8 95 8 177 -1 158 -11 217 -60 338 l-24 58 39 -31 c21 -17 42 -40 45 -51 9 -27 25 -14 25 22 0 37 15 37 34 2 l15 -28 1 37 c0 27 -6 41 -24 56 -17 13 -23 25 -20 40 11 38 -113 206 -199 270 -31 24 -43 39 -40 52 11 41 -98 72 -205 59z m117 -90 c23 -8 30 -16 26 -27 -4 -10 18 -37 68 -83 40 -37 90 -92 111 -122 38 -55 38 -55 18 -75 -20 -20 -20 -20 -42 20 -32 57 -145 174 -198 205 -42 25 -45 25 -77 10 -49 -23 -158 -130 -201 -196 -36 -56 -38 -57 -56 -39 -18 18 -17 20 21 76 40 59 153 172 173 172 6 0 8 11 6 25 -4 19 0 26 21 34 36 13 92 13 130 0z m-127 -270 c45 -23 79 -24 117 -5 15 8 49 20 75 27 52 13 50 14 98 -62 l16 -27 -40 16 c-42 17 -60 14 -159 -24 l-47 -18 -72 29 c-64 26 -76 28 -113 18 -23 -7 -43 -11 -44 -9 -1 1 10 21 25 44 26 41 28 42 67 36 22 -3 57 -15 77 -25z m-12 -179 c22 -11 55 -20 75 -20 20 0 53 9 75 20 51 26 101 25 171 -2 48 -19 58 -27 63 -52 3 -16 4 -31 1 -34 -2 -3 -39 8 -81 23 l-76 28 -64 -27 c-81 -33 -102 -33 -177 1 -60 27 -60 27 -106 9 -120 -46 -126 -46 -115 -1 5 20 20 33 58 50 64 29 125 31 176 5z m415 -237 c3 -32 2 -96 -4 -143 -6 -46 -11 -86 -11 -87 0 -2 -146 -3 -324 -3 l-325 0 -5 53 c-8 68 -10 131 -8 190 l2 47 334 0 334 0 7 -57z"
       id="path26"
       style="stroke:none;stroke-opacity:1;fill:#ffffff;fill-opacity:1" />
    <path
       d="M5468 1353 c-16 -8 -28 -18 -28 -24 0 -5 -9 -9 -20 -9 -18 0 -20 -7 -20 -80 0 -64 3 -80 15 -80 8 0 19 -9 25 -21 7 -11 18 -18 25 -15 8 3 15 0 17 -6 6 -18 95 -19 113 -2 8 9 15 12 15 8 0 -4 9 2 20 14 12 12 25 22 30 22 6 0 10 35 10 80 0 73 -2 80 -20 80 -11 0 -20 4 -20 10 0 31 -114 48 -162 23z m10 -60 c-10 -2 -26 -2 -35 0 -10 3 -2 5 17 5 19 0 27 -2 18 -5z m150 0 c-10 -2 -26 -2 -35 0 -10 3 -2 5 17 5 19 0 27 -2 18 -5z m-129 -19 c30 -6 31 -9 31 -55 l0 -49 -45 0 -45 0 0 55 c0 59 1 60 59 49z m131 -49 l0 -55 -45 0 -45 0 0 49 c0 53 4 56 68 60 20 1 22 -3 22 -54z"
       id="path28"
       style="stroke:none;stroke-opacity:1;fill:#ffffff;fill-opacity:1" />
    <path
       d="M4854 1926 c-1 -41 3 -56 14 -61 17 -6 32 11 32 38 0 19 -30 77 -40 77 -3 0 -6 -25 -6 -54z"
       id="path30"
       style="stroke:none;stroke-opacity:1;fill:#ffffff;fill-opacity:1" />
    <path
       d="M120 1765 c-40 -133 -57 -176 -71 -180 -11 -4 -19 -9 -19 -13 0 -9 118 -7 127 1 3 4 -1 7 -10 7 -9 0 -17 5 -17 11 0 28 64 249 70 242 4 -4 18 -39 33 -78 57 -159 69 -186 79 -183 6 2 32 64 58 138 27 77 51 129 54 120 15 -40 66 -217 66 -232 0 -10 -7 -18 -16 -18 -8 0 -13 -3 -11 -8 6 -9 104 -8 114 1 3 4 -1 7 -10 7 -22 0 -32 21 -92 200 -32 97 -57 155 -65 155 -8 0 -31 -50 -58 -127 -25 -71 -48 -128 -51 -128 -4 0 -28 59 -55 130 -27 72 -54 130 -60 130 -7 0 -35 -74 -66 -175z"
       id="path32"
       style="stroke:none;stroke-opacity:1;fill:#ffffff;fill-opacity:1" />
    <path
       d="M620 1930 c0 -5 6 -10 14 -10 22 0 26 -24 26 -175 0 -137 -1 -145 -22 -159 -12 -9 -20 -16 -18 -17 3 0 31 -1 63 -2 55 -2 73 5 42 17 -12 4 -15 33 -15 167 0 152 1 161 20 166 41 11 18 23 -45 23 -37 0 -65 -4 -65 -10z"
       id="path34"
       style="stroke:none;stroke-opacity:1;fill:#ffffff;fill-opacity:1" />
    <path
       d="M890 1930 c0 -5 6 -10 14 -10 17 0 26 -71 26 -212 l0 -108 -55 0 c-41 0 -56 4 -64 17 -14 25 -24 10 -17 -24 l7 -28 149 0 150 0 0 40 c0 39 0 39 -16 17 -12 -17 -25 -22 -60 -22 l-44 0 0 156 c0 147 1 156 20 161 41 11 18 23 -45 23 -37 0 -65 -4 -65 -10z"
       id="path36"
       style="stroke:none;stroke-opacity:1;fill:#ffffff;fill-opacity:1" />
    <path
       d="M1247 1848 c-16 -51 -39 -130 -53 -175 -18 -59 -30 -84 -44 -88 -11 -4 -20 -10 -20 -14 0 -9 118 -7 127 3 3 3 -1 6 -10 6 -9 0 -17 6 -17 13 1 28 67 250 72 241 3 -5 27 -67 53 -137 26 -70 53 -126 59 -124 6 2 31 61 55 130 25 70 48 127 51 127 4 0 17 -33 29 -72 12 -40 28 -95 36 -121 14 -47 14 -49 -5 -54 -37 -10 -11 -20 42 -17 66 3 68 4 43 13 -15 6 -35 50 -80 182 -39 112 -65 174 -74 174 -8 0 -31 -50 -61 -135 -43 -119 -49 -132 -58 -110 -5 14 -19 51 -31 83 -11 31 -30 82 -42 112 -11 30 -26 55 -32 55 -7 0 -25 -42 -40 -92z"
       id="path38"
       style="stroke:none;stroke-opacity:1;fill:#ffffff;fill-opacity:1" />
    <path
       d="M1620 1931 c0 -4 10 -11 22 -16 23 -10 34 -33 108 -238 23 -65 47 -116 53 -114 6 2 41 79 78 171 61 154 74 178 104 189 25 10 -8 18 -47 12 l-44 -7 -24 -69 -23 -70 -50 3 -50 3 -19 55 c-17 52 -17 56 -1 67 9 7 15 13 12 14 -26 4 -119 4 -119 0z m197 -221 l-22 -60 -17 48 c-24 69 -23 72 21 72 l40 0 -22 -60z"
       id="path40"
       style="stroke:none;stroke-opacity:1;fill:#ffffff;fill-opacity:1" />
    <path
       d="M2070 1934 c0 -3 7 -12 15 -20 12 -12 15 -45 15 -165 l0 -149 -47 0 c-29 0 -53 6 -65 17 -23 21 -29 14 -20 -22 l8 -29 152 0 152 -1 0 38 c0 39 -14 50 -23 17 -4 -17 -14 -20 -56 -20 l-52 0 3 158 c3 154 3 157 26 160 48 7 19 22 -43 22 -36 0 -65 -3 -65 -6z"
       id="path42"
       style="stroke:none;stroke-opacity:1;fill:#ffffff;fill-opacity:1" />
    <path
       d="M2350 1930 c0 -5 7 -10 15 -10 13 0 15 -25 15 -165 0 -158 -1 -165 -20 -165 -11 0 -20 -4 -20 -10 0 -6 52 -10 135 -10 126 0 135 1 135 19 0 11 -3 27 -6 36 -6 14 -8 13 -21 -5 -12 -17 -25 -20 -84 -20 l-69 0 0 66 0 66 70 -4 70 -4 0 33 c0 37 -15 52 -23 23 -4 -17 -14 -20 -61 -20 l-56 0 0 63 c0 36 5 68 12 75 7 7 41 12 81 12 60 0 70 -2 74 -20 9 -32 25 -23 21 13 l-3 32 -132 3 c-86 2 -133 -1 -133 -8z"
       id="path44"
       style="stroke:none;stroke-opacity:1;fill:#ffffff;fill-opacity:1" />
    <path
       d="M2690 1931 c0 -5 7 -11 15 -15 12 -4 15 -32 15 -166 0 -157 0 -161 -22 -170 -13 -5 -21 -9 -18 -10 6 -2 125 -3 168 -1 77 3 107 91 57 166 l-26 37 57 69 c31 38 67 72 80 75 34 9 30 24 -5 24 -53 0 -79 -18 -133 -90 -43 -57 -58 -70 -80 -70 -27 0 -28 2 -28 54 0 67 7 86 31 86 10 0 19 5 19 10 0 6 -28 10 -65 10 -36 0 -65 -4 -65 -9z m160 -181 c25 -14 36 -72 20 -111 -14 -34 -37 -49 -74 -49 -26 0 -26 1 -26 79 0 54 4 81 13 84 21 9 47 7 67 -3z"
       id="path46"
       style="stroke:none;stroke-opacity:1;fill:#ffffff;fill-opacity:1" />
    <path
       d="M3068 1933 c-19 -5 -23 -43 -8 -78 7 -18 9 -17 20 12 15 40 62 59 106 43 33 -13 44 -26 44 -56 0 -25 -20 -44 -108 -104 -69 -47 -89 -80 -78 -126 11 -43 61 -65 141 -62 l70 3 3 38 c4 42 -9 49 -26 12 -10 -22 -18 -25 -61 -25 -85 0 -97 53 -23 105 23 16 61 44 84 60 50 36 65 73 47 117 -19 46 -63 68 -134 67 -33 -1 -68 -3 -77 -6z"
       id="path48"
       style="stroke:none;stroke-opacity:1;fill:#ffffff;fill-opacity:1" />
    <path
       d="M3340 1931 c0 -5 7 -11 15 -15 12 -4 15 -32 15 -166 0 -157 0 -161 -22 -170 -28 -11 -23 -12 84 -11 52 0 95 5 107 13 47 29 51 101 10 159 l-21 30 45 57 c59 75 92 100 115 86 9 -6 44 -87 78 -180 34 -93 68 -169 74 -169 7 0 41 74 76 165 59 151 76 182 108 193 6 2 8 7 5 11 -9 9 -110 -4 -104 -14 2 -4 -6 -34 -18 -66 l-23 -59 -50 -3 -50 -3 -17 54 c-21 67 -21 77 0 77 9 0 13 3 10 7 -4 3 -42 8 -86 10 -92 4 -107 -5 -176 -101 -32 -44 -46 -56 -68 -56 l-28 0 3 68 c3 61 5 67 26 70 48 7 19 22 -43 22 -36 0 -65 -4 -65 -9z m530 -169 c0 -23 -33 -102 -40 -95 -4 4 -14 29 -23 56 l-16 47 40 0 c21 0 39 -4 39 -8z m-367 -19 c23 -26 30 -65 17 -98 -14 -36 -38 -54 -72 -55 l-28 0 0 78 c0 43 3 82 7 85 13 13 60 7 76 -10z"
       id="path50"
       style="stroke:none;stroke-opacity:1;fill:#ffffff;fill-opacity:1" />
    <path
       d="M4040 1931 c0 -5 9 -11 20 -14 19 -5 20 -14 20 -182 0 -142 3 -176 13 -173 8 2 72 66 143 142 l129 140 3 -105 c3 -123 -1 -147 -31 -159 -16 -6 -5 -9 43 -9 46 0 60 2 49 9 -14 8 -18 39 -24 185 -4 96 -11 175 -15 175 -5 0 -67 -62 -139 -137 l-131 -138 0 112 c0 125 4 143 31 143 10 0 19 5 19 10 0 6 -28 10 -65 10 -36 0 -65 -4 -65 -9z"
       id="path52"
       style="stroke:none;stroke-opacity:1;fill:#ffffff;fill-opacity:1" />
    <path
       d="M4490 1930 c0 -5 6 -10 14 -10 16 0 27 -143 19 -255 -5 -64 -9 -79 -24 -82 -43 -12 -3 -18 105 -17 145 2 197 23 234 94 48 93 8 220 -81 261 -33 15 -66 19 -154 19 -69 0 -113 -4 -113 -10z m259 -48 c71 -52 72 -183 3 -245 -28 -25 -88 -46 -135 -47 l-38 0 3 158 3 157 35 5 c46 7 97 -4 129 -28z"
       id="path54"
       style="stroke:none;stroke-opacity:1;fill:#ffffff;fill-opacity:1" />
    <path
       d="M153 1376 c-54 -25 -67 -57 -72 -178 -2 -84 -6 -108 -17 -108 -8 0 -14 -4 -14 -10 0 -6 26 -10 58 -10 49 1 55 2 40 14 -15 11 -18 30 -18 110 0 97 8 130 39 153 26 20 70 15 96 -12 24 -23 25 -31 25 -135 0 -91 -3 -110 -15 -110 -8 0 -15 -4 -15 -10 0 -5 24 -10 53 -10 45 1 50 2 35 14 -15 11 -18 29 -18 105 0 102 -15 150 -53 176 -35 23 -87 27 -124 11z"
       id="path56"
       style="stroke:none;stroke-opacity:1;fill:#ffffff;fill-opacity:1" />
    <path
       d="M1124 1379 c-4 -6 -30 -71 -59 -143 -37 -92 -59 -134 -74 -141 -35 -16 -24 -25 34 -25 30 0 55 4 55 9 0 5 -4 11 -9 13 -8 3 56 189 70 203 4 3 23 -40 44 -95 31 -82 35 -103 25 -115 -11 -13 -5 -15 41 -15 53 0 54 1 31 18 -12 10 -42 64 -66 122 -84 200 -78 190 -92 169z"
       id="path58"
       style="stroke:none;stroke-opacity:1;fill:#ffffff;fill-opacity:1" />
    <path
       d="M1993 1383 c-26 -5 -33 -20 -26 -57 l6 -27 18 30 c22 36 57 41 82 13 26 -29 21 -42 -40 -104 -47 -48 -57 -64 -57 -92 0 -58 48 -93 111 -81 28 5 33 10 33 35 0 17 -4 30 -10 30 -5 0 -10 -7 -10 -15 0 -19 -48 -31 -69 -18 -33 20 -24 49 28 93 57 48 76 85 66 130 -10 47 -71 76 -132 63z"
       id="path60"
       style="stroke:none;stroke-opacity:1;fill:#ffffff;fill-opacity:1" />
    <path
       d="M3242 1380 c-72 -17 -119 -93 -109 -177 9 -83 73 -137 162 -137 98 0 155 56 155 152 0 84 -40 141 -115 161 -45 12 -46 12 -93 1z m124 -54 c31 -31 34 -40 34 -90 0 -68 -19 -110 -60 -131 -45 -23 -85 -19 -121 13 -61 54 -48 179 23 222 49 30 84 26 124 -14z"
       id="path62"
       style="stroke:none;stroke-opacity:1;fill:#ffffff;fill-opacity:1" />
    <path
       d="M428 1360 c21 -19 22 -30 22 -163 l1 -142 120 125 121 125 -6 -49 c-3 -27 -6 -75 -6 -106 0 -51 -3 -59 -22 -66 -18 -6 -13 -8 26 -11 46 -4 75 5 49 14 -10 3 -13 40 -13 136 0 74 -5 139 -11 147 -8 12 -30 -6 -119 -100 l-110 -115 0 98 c0 90 2 99 20 104 39 10 19 23 -37 23 l-57 0 22 -20z"
       id="path64"
       style="stroke:none;stroke-opacity:1;fill:#ffffff;fill-opacity:1" />
    <path
       d="M820 1370 c0 -5 5 -10 10 -10 6 0 10 -52 10 -135 0 -83 -4 -135 -10 -135 -5 0 -10 -4 -10 -10 0 -5 24 -10 53 -10 45 1 50 2 35 14 -16 11 -18 31 -18 145 0 107 3 131 14 131 8 0 18 5 21 10 4 6 -15 10 -49 10 -31 0 -56 -4 -56 -10z"
       id="path66"
       style="stroke:none;stroke-opacity:1;fill:#ffffff;fill-opacity:1" />
    <path
       d="M1354 1358 c12 -17 16 -50 16 -141 0 -110 -1 -119 -20 -124 -50 -13 -10 -23 95 -23 120 0 123 1 106 44 -7 18 -8 18 -14 3 -5 -13 -19 -17 -67 -17 l-60 0 0 51 0 51 60 -4 c49 -3 60 -2 55 10 -3 7 -5 23 -5 35 -1 20 -2 21 -14 5 -9 -12 -27 -18 -55 -18 l-41 0 0 55 c0 50 2 56 26 65 41 16 82 12 105 -11 25 -25 32 -20 23 15 l-6 26 -110 0 -109 0 15 -22z"
       id="path68"
       style="stroke:none;stroke-opacity:1;fill:#ffffff;fill-opacity:1" />
    <path
       d="M1643 1366 c15 -11 17 -31 17 -145 0 -110 -2 -131 -15 -131 -8 0 -15 -4 -15 -10 0 -14 140 -12 170 3 38 19 47 67 21 118 -20 37 -20 43 -7 64 30 46 84 95 105 95 11 0 21 5 21 11 0 6 -19 9 -47 7 -45 -3 -50 -6 -97 -65 -35 -45 -57 -63 -73 -63 -18 0 -23 6 -23 24 0 45 13 86 26 86 8 0 14 5 14 10 0 6 -26 10 -57 10 -50 -1 -56 -2 -40 -14z m131 -152 c19 -19 21 -73 3 -97 -6 -10 -26 -19 -42 -20 -30 -2 -30 -1 -33 52 -2 29 -1 60 2 67 7 19 51 18 70 -2z"
       id="path70"
       style="stroke:none;stroke-opacity:1;fill:#ffffff;fill-opacity:1" />
    <path
       d="M2220 1370 c0 -5 7 -10 15 -10 13 0 15 -22 15 -135 0 -113 -2 -135 -15 -135 -8 0 -15 -4 -15 -10 0 -5 23 -10 50 -10 54 0 58 3 35 26 -11 12 -15 39 -15 108 0 111 8 156 26 156 8 0 14 5 14 10 0 6 -25 10 -55 10 -30 0 -55 -4 -55 -10z"
       id="path72"
       style="stroke:none;stroke-opacity:1;fill:#ffffff;fill-opacity:1" />
    <path
       d="M2483 1366 c15 -11 17 -31 17 -140 l0 -126 -37 0 c-20 0 -45 8 -56 18 -20 17 -20 16 -13 -17 3 -19 7 -35 9 -35 1 -1 57 0 125 2 l122 3 0 32 c-1 29 -2 30 -14 15 -8 -12 -27 -18 -50 -18 l-36 0 0 130 c0 109 2 130 15 130 8 0 15 5 15 10 0 6 -26 10 -57 10 -50 -1 -56 -2 -40 -14z"
       id="path74"
       style="stroke:none;stroke-opacity:1;fill:#ffffff;fill-opacity:1" />
    <path
       d="M2803 1366 c12 -10 17 -27 17 -67 0 -44 -7 -64 -41 -121 -22 -38 -49 -74 -60 -81 -30 -19 -23 -27 27 -27 27 0 43 4 39 10 -6 10 3 31 43 94 l24 39 33 -59 c18 -32 31 -64 28 -71 -4 -9 6 -13 36 -13 23 0 41 5 41 10 0 6 -6 10 -14 10 -8 0 -35 33 -60 73 -42 67 -46 79 -46 135 0 47 3 62 14 62 8 0 18 5 21 10 4 6 -17 10 -57 10 -55 -1 -61 -2 -45 -14z"
       id="path76"
       style="stroke:none;stroke-opacity:1;fill:#ffffff;fill-opacity:1" />
    <path
       d="M3530 1371 c0 -5 6 -11 13 -13 8 -3 13 -41 15 -128 4 -120 3 -124 -20 -142 -23 -17 -21 -18 76 -18 85 0 97 2 92 16 -3 9 -6 23 -6 32 -1 16 -2 15 -14 0 -8 -12 -27 -18 -50 -18 l-36 0 0 51 0 52 51 -5 c41 -4 49 -2 45 9 -4 8 -6 24 -6 36 -1 20 -2 21 -14 5 -8 -11 -26 -18 -45 -18 l-31 0 0 61 c0 52 3 62 20 66 39 10 19 23 -35 23 -30 0 -55 -4 -55 -9z"
       id="path78"
       style="stroke:none;stroke-opacity:1;fill:#ffffff;fill-opacity:1" />
    <path
       d="M3980 1371 c0 -5 5 -11 12 -13 8 -3 13 -45 16 -131 l4 -127 -45 0 c-33 0 -49 5 -56 17 -13 25 -22 12 -15 -23 l5 -29 127 3 c70 2 129 5 131 7 2 2 0 17 -4 32 -6 24 -8 25 -16 10 -7 -12 -22 -17 -49 -17 l-40 0 0 130 c0 123 1 130 20 130 11 0 20 5 20 10 0 6 -25 10 -55 10 -30 0 -55 -4 -55 -9z"
       id="path80"
       style="stroke:none;stroke-opacity:1;fill:#ffffff;fill-opacity:1" />
    <path
       d="M4230 1370 c0 -5 5 -10 10 -10 6 0 10 -52 10 -135 0 -113 -2 -135 -15 -135 -8 0 -15 -4 -15 -10 0 -6 26 -10 58 -10 49 1 55 2 40 14 -13 10 -18 27 -18 65 l0 51 80 0 80 0 0 -55 c0 -42 -3 -55 -15 -55 -8 0 -15 -4 -15 -10 0 -5 23 -10 50 -10 46 0 67 13 38 22 -29 10 -21 268 8 268 8 0 14 5 14 10 0 6 -25 10 -55 10 -30 0 -55 -4 -55 -10 0 -5 7 -10 15 -10 12 0 15 -14 15 -70 l0 -70 -80 0 -80 0 0 70 c0 54 3 70 14 70 8 0 18 5 21 10 4 6 -15 10 -49 10 -31 0 -56 -4 -56 -10z"
       id="path82"
       style="stroke:none;stroke-opacity:1;fill:#ffffff;fill-opacity:1" />
    <path
       d="M4620 1371 c0 -5 6 -11 13 -13 8 -3 13 -41 15 -132 4 -122 3 -128 -17 -133 -47 -12 -15 -23 69 -23 94 0 98 2 81 44 -7 18 -8 18 -14 3 -4 -12 -18 -17 -42 -17 l-35 0 0 51 0 51 45 -4 c45 -3 45 -3 45 29 0 18 -4 33 -10 33 -5 0 -10 -7 -10 -15 0 -10 -11 -15 -35 -15 l-35 0 0 60 c0 45 4 60 14 60 8 0 21 3 29 6 9 3 25 -4 37 -16 26 -26 35 -21 26 15 -6 24 -9 25 -91 25 -47 0 -85 -4 -85 -9z"
       id="path84"
       style="stroke:none;stroke-opacity:1;fill:#ffffff;fill-opacity:1" />
    <path
       d="M5463 879 c-3 -10 -14 -19 -25 -19 -32 0 -55 -18 -67 -51 -16 -45 -14 -67 7 -72 16 -4 16 -5 -1 -6 -21 -1 -37 -39 -37 -91 0 -32 -5 -42 -30 -56 -39 -24 -56 -65 -44 -112 13 -53 33 -53 27 1 -5 42 -3 46 33 73 55 40 64 53 64 96 0 33 4 40 28 49 64 25 95 45 105 66 l10 23 29 -34 c19 -23 41 -38 64 -42 37 -7 67 -40 64 -71 -5 -39 2 -50 46 -82 44 -31 46 -34 42 -76 -2 -25 0 -45 4 -45 14 0 28 39 28 75 0 31 -7 44 -40 74 -36 33 -40 41 -40 83 0 37 -5 50 -22 62 -13 9 -17 16 -9 16 10 0 12 10 8 41 -6 48 -31 79 -64 79 -14 0 -23 6 -23 15 0 18 3 17 -84 20 -60 3 -69 1 -73 -16z"
       id="path86"
       style="stroke:none;stroke-opacity:1;fill:#ffffff;fill-opacity:1" />
  </g>
</svg>
